…
``` r
victim_count <- data |> 
  filter(vic_sex %in% c('F', 'M')) |> 
  filter(vic_age_group %in% c('<18', '18-24', '25-44', '45-64', '65+')) |> 
  select(vic_age_group, vic_race, vic_sex) |> 
  group_by(vic_age_group, vic_race, vic_sex) |> 
  summarize(count = n()) |> 
  ungroup() |> 
  arrange(desc(count))
  
print(victim_count)
```

    ## # A tibble: 68 × 4
    ##    vic_age_group vic_race       vic_sex  count
    ##    <chr>         <chr>          <chr>    <int>
    ##  1 25-44         BLACK          F       149910
    ##  2 25-44         WHITE HISPANIC F        97297
    ##  3 25-44         BLACK          M        78439
    ##  4 45-64         BLACK          F        66138
    ##  5 25-44         WHITE          F        63926
    ##  6 25-44         WHITE HISPANIC M        62627
    ##  7 25-44         WHITE          M        58194
    ##  8 45-64         BLACK          M        52932
    ##  9 18-24         BLACK          F        43658
    ## 10 45-64         WHITE          M        42103
    ## # ℹ 58 more rows

``` r
suspect_count <- data |> 
  filter(susp_sex %in% c('F', 'M')) |> 
  filter(susp_age_group %in% c('<18', '18-24', '25-44', '45-64', '65+')) |> 
  select(susp_age_group, susp_race, susp_sex) |> 
  group_by(susp_age_group, susp_race, susp_sex) |> 
  summarize(count = n()) |> 
  ungroup() |> 
  arrange(desc(count))
  
print(suspect_count)
```

    ## # A tibble: 60 × 4
    ##    susp_age_group susp_race      susp_sex  count
    ##    <chr>          <chr>          <chr>     <int>
    ##  1 25-44          BLACK          M        161899
    ##  2 25-44          WHITE HISPANIC M         84750
    ##  3 25-44          BLACK          F         55501
    ##  4 45-64          BLACK          M         52222
    ##  5 18-24          BLACK          M         50762
    ##  6 25-44          WHITE          M         39766
    ##  7 25-44          WHITE HISPANIC F         27097
    ##  8 25-44          BLACK HISPANIC M         26551
    ##  9 18-24          WHITE HISPANIC M         25330
    ## 10 45-64          WHITE HISPANIC M         24104
    ## # ℹ 50 more rows
